{
    "my-key": [
        {
            "test-of-nesting": "yet-another",
            "other-key": "other-value"
        },
        {
            "test-of-nesting2": "yet-another2",
            "other-key2": "other-value2"
        }
    ]
}
